<svg width="40" height="40" viewBox="0 0 40 40" fill="none" xmlns="http://www.w3.org/2000/svg">
<rect width="40" height="40" rx="20" fill="#DBE3F5"/>
<path d="M17 20H23V22H17V20Z" fill="#182953"/>
<path fill-rule="evenodd" clip-rule="evenodd" d="M12 12H28V15H12V12ZM11 17H10V10H30V17H29V30H11V17ZM13 17V28H27V17H13Z" fill="#182953"/>
</svg>
