<svg width="40" height="40" viewBox="0 0 40 40" fill="none" xmlns="http://www.w3.org/2000/svg">
<path d="M0 20C0 8.95431 8.95431 0 20 0C31.0457 0 40 8.95431 40 20C40 31.0457 31.0457 40 20 40C8.95431 40 0 31.0457 0 20Z" fill="#DBE3F5"/>
<path fill-rule="evenodd" clip-rule="evenodd" d="M22 20H18V24H22V20ZM16 18V26H24V18H16Z" fill="#182953"/>
<path d="M19 18H21V22H19V18Z" fill="#182953"/>
<path fill-rule="evenodd" clip-rule="evenodd" d="M28 17.1324L20 12.3324L12 17.1324V28H28V17.1324ZM20 10L30 16V30H10V16L20 10Z" fill="#182953"/>
</svg>
