<svg width="104" height="104" viewBox="0 0 104 104" fill="none" xmlns="http://www.w3.org/2000/svg">
<rect width="104" height="104" rx="52" fill="#EBF0FA"/>
<path d="M60.1667 43.979C59.1995 42.7574 57.961 41.7688 56.5457 41.0889C55.1304 40.4089 53.5756 40.0554 52 40.0554C50.4244 40.0554 48.8696 40.4089 47.4543 41.0889C46.039 41.7688 44.8005 42.7574 43.8333 43.979C42.8662 42.7574 41.6277 41.7688 40.2124 41.0889C38.797 40.4089 37.2423 40.0554 35.6667 40.0554C34.0911 40.0554 32.5363 40.4089 31.121 41.0889C29.7056 41.7688 28.4671 42.7574 27.5 43.979V40.5415C27.5 34.1597 30.0812 28.0393 34.6759 23.5267C39.2705 19.0142 45.5022 16.479 52 16.479C58.4978 16.479 64.7295 19.0142 69.3241 23.5267C73.9188 28.0393 76.5 34.1597 76.5 40.5415V43.979C75.5329 42.7574 74.2944 41.7688 72.879 41.0889C71.4637 40.4089 69.9089 40.0554 68.3333 40.0554C66.7577 40.0554 65.203 40.4089 63.7876 41.0889C62.3723 41.7688 61.1338 42.7574 60.1667 43.979Z" fill="white"/>
<path d="M43.8217 43.9675C42.8529 42.7495 41.6142 41.7644 40.1995 41.0873C38.7849 40.4102 37.2317 40.0588 35.658 40.0599C34.0843 40.061 32.5316 40.4146 31.1179 41.0937C29.7043 41.7728 28.4669 42.7596 27.5 43.979V40.5415C27.5062 35.154 29.3506 29.9239 32.7385 25.6868C36.1264 21.4496 40.8624 18.4498 46.19 17.1665C36.1567 27.7425 43.5417 43.3717 43.8217 43.9675Z" fill="#F5757B"/>
<path d="M76.4995 40.5415V43.979C75.5326 42.7596 74.2952 41.7728 72.8816 41.0937C71.4679 40.4146 69.9152 40.061 68.3415 40.0599C66.7678 40.0588 65.2146 40.4102 63.8 41.0873C62.3853 41.7644 61.1466 42.7495 60.1778 43.9675C60.4578 43.3717 67.8429 27.7311 57.7979 17.1665C63.1285 18.4459 67.8682 21.4444 71.2587 25.6821C74.6492 29.9198 76.4945 35.152 76.4995 40.5415Z" fill="#F5757B"/>
<path d="M56.6663 57.729H47.333V68.0415H56.6663V57.729Z" fill="#F5757B"/>
<path d="M46.1667 81.7915H39.1667C38.8572 81.7915 38.5605 81.9122 38.3417 82.1271C38.1229 82.342 38 82.6334 38 82.9373C38 83.2412 38.1229 83.5327 38.3417 83.7476C38.5605 83.9624 38.8572 84.0832 39.1667 84.0832H46.1667C46.4761 84.0832 46.7728 83.9624 46.9916 83.7476C47.2104 83.5327 47.3333 83.2412 47.3333 82.9373C47.3333 82.6334 47.2104 82.342 46.9916 82.1271C46.7728 81.9122 46.4761 81.7915 46.1667 81.7915Z" fill="#F5757B"/>
<path d="M38 78.3541C38 78.658 38.1229 78.9494 38.3417 79.1643C38.5605 79.3792 38.8572 79.4999 39.1667 79.4999H52C52.3094 79.4999 52.6062 79.3792 52.825 79.1643C53.0437 78.9494 53.1667 78.658 53.1667 78.3541C53.1667 78.0502 53.0437 77.7587 52.825 77.5439C52.6062 77.329 52.3094 77.2083 52 77.2083H39.1667C38.8572 77.2083 38.5605 77.329 38.3417 77.5439C38.1229 77.7587 38 78.0502 38 78.3541Z" fill="#F5757B"/>
<path d="M51.9997 15.3333C45.1948 15.3408 38.6709 17.9991 33.8591 22.725C29.0474 27.4508 26.3407 33.8582 26.333 40.5416V43.9791C26.3358 44.18 26.3909 44.3768 26.493 44.5509C26.5951 44.725 26.7408 44.8705 26.9163 44.9737L47.6072 56.5833H34.4997C34.1903 56.5833 33.8935 56.704 33.6747 56.9189C33.4559 57.1337 33.333 57.4252 33.333 57.7291V87.5208C33.333 87.8246 33.4559 88.1161 33.6747 88.331C33.8935 88.5459 34.1903 88.6666 34.4997 88.6666H69.4997C69.8091 88.6666 70.1058 88.5459 70.3246 88.331C70.5434 88.1161 70.6663 87.8246 70.6663 87.5208V57.7291C70.6663 57.4252 70.5434 57.1337 70.3246 56.9189C70.1058 56.704 69.8091 56.5833 69.4997 56.5833H56.3922L77.083 44.9737C77.2586 44.8706 77.4044 44.7251 77.5065 44.551C77.6086 44.3769 77.6637 44.18 77.6664 43.9791V40.5416C77.6586 33.8582 74.952 27.4508 70.1402 22.725C65.3285 17.9991 58.8045 15.3408 51.9997 15.3333ZM51.9997 17.6249C53.7486 17.6299 55.4913 17.8286 57.1948 18.2173C64.6148 26.3527 61.3435 37.748 59.7755 41.8937C57.6571 39.9743 54.8806 38.9086 51.9985 38.9086C49.1164 38.9086 46.3399 39.9743 44.2215 41.8937C42.6488 37.7538 39.367 26.3711 46.8045 18.215C48.5081 17.8271 50.2509 17.6291 51.9997 17.6249ZM58.7372 44.1109L51.9997 55.4546L45.2622 44.1109C46.1187 43.1939 47.1599 42.4618 48.3197 41.9609C49.4795 41.4601 50.7327 41.2015 51.9997 41.2015C53.2667 41.2015 54.5198 41.4601 55.6797 41.9609C56.8395 42.4618 57.8807 43.1939 58.7372 44.1109ZM28.6663 40.5416C28.6715 36.0296 30.0306 31.6192 32.5737 27.8616C35.1168 24.1041 38.7312 21.166 42.965 19.4147C38.2575 26.7641 39.675 35.3131 41.1952 40.2952C39.2382 39.2453 37.0135 38.7748 34.79 38.9405C32.5665 39.1063 30.4395 39.9012 28.6663 41.2291V40.5416ZM29.3442 43.6949C30.2674 42.8272 31.3653 42.1588 32.5674 41.7328C33.7694 41.3068 35.0489 41.1326 36.3236 41.2214C37.5983 41.3102 38.8399 41.6601 39.9687 42.2485C41.0974 42.8369 42.0883 43.6508 42.8775 44.6379L48.8018 54.6124L29.3442 43.6949ZM55.4997 58.8749V66.8958H48.4997V58.8749H55.4997ZM56.6663 69.1874C56.9758 69.1874 57.2725 69.0667 57.4913 68.8518C57.7101 68.6369 57.833 68.3455 57.833 68.0416V58.8749H68.333V86.3749H35.6663V58.8749H46.1663V68.0416C46.1663 68.3455 46.2893 68.6369 46.5081 68.8518C46.7268 69.0667 47.0236 69.1874 47.333 69.1874H56.6663ZM55.2022 54.6124L61.1265 44.6379C61.9158 43.6508 62.9066 42.8369 64.0354 42.2485C65.1641 41.6601 66.4058 41.3102 67.6804 41.2214C68.9551 41.1326 70.2346 41.3068 71.4367 41.7328C72.6387 42.1588 73.7366 42.8272 74.6599 43.6949L55.2022 54.6124ZM75.333 41.2291C73.5603 39.9004 71.4335 39.1047 69.2101 38.9382C66.9866 38.7716 64.7616 39.2414 62.8042 40.2906C64.3209 35.3086 65.7418 26.7595 61.0343 19.4101C65.2689 21.1617 68.8838 24.1005 71.4269 27.859C73.9701 31.6174 75.3288 36.0288 75.333 40.5416V41.2291Z" fill="#192A55"/>
</svg>
