<svg width="20" height="20" viewBox="0 0 20 20" fill="none" xmlns="http://www.w3.org/2000/svg">
<path d="M10 20C4.47967 19.9939 0.00606237 15.5203 0 10V9.8C0.109931 4.30453 4.63459 -0.072041 10.1307 0.000882959C15.6268 0.0738069 20.0337 4.56889 19.9978 10.0653C19.9619 15.5618 15.4966 19.9989 10 20ZM5.41 9.59L4 11L8 15L16 7L14.59 5.58L8 12.17L5.41 9.59Z" fill="#192A55"/>
</svg>
