<svg width="24" height="25" viewBox="0 0 24 25" fill="none" xmlns="http://www.w3.org/2000/svg">
<path d="M21 21.3406H13V15.3406H21V21.3406ZM11 21.3406H3V11.3406H11V21.3406ZM21 13.3406H13V3.34058H21V13.3406ZM11 9.34058H3V3.34058H11V9.34058Z" fill="#EBEBFF"/>
</svg>
