<svg width="24" height="25" viewBox="0 0 24 25" fill="none" xmlns="http://www.w3.org/2000/svg">
<path d="M18 22.3399H6C4.89543 22.3399 4 21.4444 4 20.3399V4.33985C4 3.23529 4.89543 2.33985 6 2.33985H13C13.2654 2.33891 13.5201 2.44446 13.707 2.63286L19.707 8.63286C19.8954 8.81978 20.0009 9.07446 20 9.33985V20.3399C20 21.4444 19.1046 22.3399 18 22.3399ZM6 4.33986V20.3399H16.586L14.02 17.7739C13.4101 18.1415 12.7121 18.3371 12 18.3399C10.1612 18.3598 8.54049 17.1365 8.05545 15.3628C7.57041 13.589 8.34318 11.7113 9.93625 10.7927C11.5293 9.87419 13.5415 10.1461 14.8337 11.4545C16.1258 12.763 16.3724 14.7784 15.434 16.3599L18 18.9279V9.75386L12.586 4.33986H6ZM12 12.3399C10.8954 12.3399 10 13.2353 10 14.3399C10 15.4444 10.8954 16.3399 12 16.3399C13.1046 16.3399 14 15.4444 14 14.3399C14 13.2353 13.1046 12.3399 12 12.3399Z" fill="#FAFAFF"/>
</svg>
